signalLVL0="
user.istin.307510.E6_13TeV.CompHepPythia8EvtGen_A14_NNPDF23LO_HbbarZlljj.EXOT4.e5726_s2726_r7772_r7676_p2949.v1_output.root_nominal_lvl0
user.istin.308963.E6_13TeV.CompHepPythia8EvtGen_A14NNPDF23LO_HbbarZlljj.EXOT4.e6253_a766_a821_r7676_p2949.v1_output.root_nominal_lvl0
user.istin.309073.E6_13TeV.CompHepPythia8EvtGen_A14NNPDF23LO_HbbarZlljj.EXOT4.e6253_a766_a821_r7676_p2949.v1_output.root_nominal_lvl0
user.istin.308964.E6_13TeV.CompHepPythia8EvtGen_A14NNPDF23LO_HbbarZlljj.EXOT4.e6137_a766_a821_r7676_p2949.17.08.05_SG_output.root_nominal_lvl0
user.istin.308961.E6_13TeV.CompHepPythia8EvtGen_A14NNPDF23LO_HbbarZlljj.EXOT4.e6137_a766_a821_r7676_p2949.v1_output.root_nominal_lvl0
"

Triboson_Sherpa="
user.nikiforo.361620.13TeV_Triboson_Sherpa.WWW_3l3v.DAOD_EXOT4.e4093_s2608_s2183_r8112_r7676_p2949.2017.02.17_bkg_output.root_lvl0
user.nikiforo.361621.13TeV_Triboson_Sherpa.WWZ_4l2v.DAOD_EXOT4.e4053_s2608_s2183_r8112_r7676_p2949.2017.02.17_bkg_output.root_lvl0
user.nikiforo.361622.13TeV_Triboson_Sherpa.WWZ_2l4v.DAOD_EXOT4.e4053_s2608_s2183_r8112_r7676_p2949.2017.02.17_bkg_output.root_lvl0
user.nikiforo.361623.13TeV_Triboson_Sherpa.WZZ_5l1v.DAOD_EXOT4.e4093_s2608_s2183_r8112_r7676_p2949.2017.02.17_bkg_output.root_lvl0
user.nikiforo.361624.13TeV_Triboson_Sherpa.WZZ_3l3v.DAOD_EXOT4.e4093_s2608_s2183_r8112_r7676_p2949.2017.02.17_bkg_output.root_lvl0
user.nikiforo.361625.13TeV_Triboson_Sherpa.ZZZ_6l0v.DAOD_EXOT4.e4093_s2608_s2183_r7772_r7676_p2949.2017.02.17_bkg_output.root_lvl0
user.nikiforo.361626.13TeV_Triboson_Sherpa.ZZZ_4l2v.DAOD_EXOT4.e4093_s2608_s2183_r7772_r7676_p2949.2017.02.17_bkg_output.root_lvl0
user.nikiforo.361627.13TeV_Triboson_Sherpa.ZZZ_2l4v.DAOD_EXOT4.e4093_s2608_s2183_r7772_r7676_p2949.2017.02.17_bkg_output.root_lvl0
"

VLQ_20170216_data="
user.nikiforo.00276262.Data16_13TeV.DAOD_EXOT4.r7562_p2521_p2950.2017.02.16_data_output.root_lvl0
user.nikiforo.00276329.Data16_13TeV.DAOD_EXOT4.r7562_p2521_p2950.2017.02.16_data_output.root_lvl0
user.nikiforo.00276336.Data16_13TeV.DAOD_EXOT4.r7562_p2521_p2950.2017.02.16_data_output.root_lvl0
user.nikiforo.00276416.Data16_13TeV.DAOD_EXOT4.r7562_p2521_p2950.2017.02.16_data_output.root_lvl0
user.nikiforo.00276511.Data16_13TeV.DAOD_EXOT4.r7562_p2521_p2950.2017.02.16_data_output.root_lvl0
user.nikiforo.00276689.Data16_13TeV.DAOD_EXOT4.r7562_p2521_p2950.2017.02.16_data_output.root_lvl0
user.nikiforo.00276778.Data16_13TeV.DAOD_EXOT4.r7562_p2521_p2950.2017.02.16_data_output.root_lvl0
user.nikiforo.00276790.Data16_13TeV.DAOD_EXOT4.r7562_p2521_p2950.2017.02.16_data_output.root_lvl0
user.nikiforo.00276952.Data16_13TeV.DAOD_EXOT4.r7562_p2521_p2950.2017.02.16_data_output.root_lvl0
user.nikiforo.00276954.Data16_13TeV.DAOD_EXOT4.r7562_p2521_p2950.2017.02.16_data_output.root_lvl0
user.nikiforo.00278880.Data16_13TeV.DAOD_EXOT4.r7562_p2521_p2950.2017.02.16_data_output.root_lvl0
user.nikiforo.00278912.Data16_13TeV.DAOD_EXOT4.r7562_p2521_p2950.2017.02.16_data_output.root_lvl0
user.nikiforo.00278968.Data16_13TeV.DAOD_EXOT4.r7562_p2521_p2950.2017.02.16_data_output.root_lvl0
user.nikiforo.00279169.Data16_13TeV.DAOD_EXOT4.r7562_p2521_p2950.2017.02.16_data_output.root_lvl0
user.nikiforo.00279259.Data16_13TeV.DAOD_EXOT4.r7562_p2521_p2950.2017.02.16_data_output.root_lvl0
user.nikiforo.00279279.Data16_13TeV.DAOD_EXOT4.r7562_p2521_p2950.2017.02.16_data_output.root_lvl0
user.nikiforo.00279284.Data16_13TeV.DAOD_EXOT4.r7562_p2521_p2950.2017.02.16_data_output.root_lvl0
user.nikiforo.00279345.Data16_13TeV.DAOD_EXOT4.r7562_p2521_p2950.2017.02.16_data_output.root_lvl0
user.nikiforo.00279515.Data16_13TeV.DAOD_EXOT4.r7562_p2521_p2950.2017.02.16_data_output.root_lvl0
user.nikiforo.00279598.Data16_13TeV.DAOD_EXOT4.r7562_p2521_p2950.2017.02.16_data_output.root_lvl0
user.nikiforo.00279685.Data16_13TeV.DAOD_EXOT4.r7562_p2521_p2950.2017.02.16_data_output.root_lvl0
user.nikiforo.00279813.Data16_13TeV.DAOD_EXOT4.r7562_p2521_p2950.2017.02.16_data_output.root_lvl0
user.nikiforo.00279867.Data16_13TeV.DAOD_EXOT4.r7562_p2521_p2950.2017.02.16_data_output.root_lvl0
user.nikiforo.00279928.Data16_13TeV.DAOD_EXOT4.r7562_p2521_p2950.2017.02.16_data_output.root_lvl0
user.nikiforo.00279932.Data16_13TeV.DAOD_EXOT4.r7562_p2521_p2950.2017.02.16_data_output.root_lvl0
user.nikiforo.00279984.Data16_13TeV.DAOD_EXOT4.r7562_p2521_p2950.2017.02.16_data_output.root_lvl0
user.nikiforo.00280231.Data16_13TeV.DAOD_EXOT4.r7562_p2521_p2950.2017.02.16_data_output.root_lvl0
user.nikiforo.00280273.Data16_13TeV.DAOD_EXOT4.r7562_p2521_p2950.2017.02.16_data_output.root_lvl0
user.nikiforo.00280319.Data16_13TeV.DAOD_EXOT4.r7562_p2521_p2950.2017.02.16_data_output.root_lvl0
user.nikiforo.00280368.Data16_13TeV.DAOD_EXOT4.r7562_p2521_p2950.2017.02.16_data_output.root_lvl0
user.nikiforo.00280423.Data16_13TeV.DAOD_EXOT4.r7562_p2521_p2950.2017.02.16_data_output.root_lvl0
user.nikiforo.00280464.Data16_13TeV.DAOD_EXOT4.r7562_p2521_p2950.2017.02.16_data_output.root_lvl0
user.nikiforo.00280500.Data16_13TeV.DAOD_EXOT4.r7562_p2521_p2950.2017.02.16_data_output.root_lvl0
user.nikiforo.00280520.Data16_13TeV.DAOD_EXOT4.r7562_p2521_p2950.2017.02.16_data_output.root_lvl0
user.nikiforo.00280614.Data16_13TeV.DAOD_EXOT4.r7562_p2521_p2950.2017.02.16_data_output.root_lvl0
user.nikiforo.00280673.Data16_13TeV.DAOD_EXOT4.r7562_p2521_p2950.2017.02.16_data_output.root_lvl0
user.nikiforo.00280753.Data16_13TeV.DAOD_EXOT4.r7562_p2521_p2950.2017.02.16_data_output.root_lvl0
user.nikiforo.00280853.Data16_13TeV.DAOD_EXOT4.r7562_p2521_p2950.2017.02.16_data_output.root_lvl0
user.nikiforo.00280862.Data16_13TeV.DAOD_EXOT4.r7562_p2521_p2950.2017.02.16_data_output.root_lvl0
user.nikiforo.00280950.Data16_13TeV.DAOD_EXOT4.r7562_p2521_p2950.2017.02.16_data_output.root_lvl0
user.nikiforo.00280977.Data16_13TeV.DAOD_EXOT4.r7562_p2521_p2950.2017.02.16_data_output.root_lvl0
user.nikiforo.00281070.Data16_13TeV.DAOD_EXOT4.r7562_p2521_p2950.2017.02.16_data_output.root_lvl0
user.nikiforo.00281074.Data16_13TeV.DAOD_EXOT4.r7562_p2521_p2950.2017.02.16_data_output.root_lvl0
user.nikiforo.00281075.Data16_13TeV.DAOD_EXOT4.r7562_p2521_p2950.2017.02.16_data_output.root_lvl0
user.nikiforo.00281317.Data16_13TeV.DAOD_EXOT4.r7562_p2521_p2950.2017.02.16_data_output.root_lvl0
user.nikiforo.00281385.Data16_13TeV.DAOD_EXOT4.r7562_p2521_p2950.2017.02.16_data_output.root_lvl0
user.nikiforo.00281411.Data16_13TeV.DAOD_EXOT4.r7562_p2521_p2950.2017.02.16_data_output.root_lvl0
user.nikiforo.00282625.Data16_13TeV.DAOD_EXOT4.r7562_p2521_p2950.2017.02.16_data_output.root_lvl0
user.nikiforo.00282631.Data16_13TeV.DAOD_EXOT4.r7562_p2521_p2950.2017.02.16_data_output.root_lvl0
user.nikiforo.00282712.Data16_13TeV.DAOD_EXOT4.r7562_p2521_p2950.2017.02.16_data_output.root_lvl0
user.nikiforo.00282784.Data16_13TeV.DAOD_EXOT4.r7562_p2521_p2950.2017.02.16_data_output.root_lvl0
user.nikiforo.00282992.Data16_13TeV.DAOD_EXOT4.r7562_p2521_p2950.2017.02.16_data_output.root_lvl0
user.nikiforo.00283074.Data16_13TeV.DAOD_EXOT4.r7562_p2521_p2950.2017.02.16_data_output.root_lvl0
user.nikiforo.00283155.Data16_13TeV.DAOD_EXOT4.r7562_p2521_p2950.2017.02.16_data_output.root_lvl0
user.nikiforo.00283270.Data16_13TeV.DAOD_EXOT4.r7562_p2521_p2950.2017.02.16_data_output.root_lvl0
user.nikiforo.00283429.Data16_13TeV.DAOD_EXOT4.r7562_p2521_p2950.2017.02.16_data_output.root_lvl0
user.nikiforo.00283608.Data16_13TeV.DAOD_EXOT4.r7562_p2521_p2950.2017.02.16_data_output.root_lvl0
user.nikiforo.00283780.Data16_13TeV.DAOD_EXOT4.r7562_p2521_p2950.2017.02.16_data_output.root_lvl0
user.nikiforo.00284006.Data16_13TeV.DAOD_EXOT4.r7562_p2521_p2950.2017.02.16_data_output.root_lvl0
user.nikiforo.00284154.Data16_13TeV.DAOD_EXOT4.r7562_p2521_p2950.2017.02.16_data_output.root_lvl0
user.nikiforo.00284213.Data16_13TeV.DAOD_EXOT4.r7562_p2521_p2950.2017.02.16_data_output.root_lvl0
user.nikiforo.00284285.Data16_13TeV.DAOD_EXOT4.r7562_p2521_p2950.2017.02.16_data_output.root_lvl0
user.nikiforo.00284420.Data16_13TeV.DAOD_EXOT4.r7562_p2521_p2950.2017.02.16_data_output.root_lvl0
user.nikiforo.00284427.Data16_13TeV.DAOD_EXOT4.r7562_p2521_p2950.2017.02.16_data_output.root_lvl0
user.nikiforo.00284484.Data16_13TeV.DAOD_EXOT4.r7562_p2521_p2950.2017.02.16_data_output.root_lvl0
user.nikiforo.00297730.Data16_13TeV.DAOD_EXOT4.f694_m1583_p2950.2017.02.16_data_output.root_lvl0
user.nikiforo.00298595.Data16_13TeV.DAOD_EXOT4.f698_m1594_p2950.2017.02.16_data_output.root_lvl0
user.nikiforo.00298609.Data16_13TeV.DAOD_EXOT4.f698_m1594_p2950.2017.02.16_data_output.root_lvl0
user.nikiforo.00298633.Data16_13TeV.DAOD_EXOT4.f698_m1594_p2950.2017.02.16_data_output.root_lvl0
user.nikiforo.00298687.Data16_13TeV.DAOD_EXOT4.f698_m1594_p2950.2017.02.16_data_output.root_lvl0
user.nikiforo.00298690.Data16_13TeV.DAOD_EXOT4.f698_m1594_p2950.2017.02.16_data_output.root_lvl0
user.nikiforo.00298771.Data16_13TeV.DAOD_EXOT4.f698_m1594_p2950.2017.02.16_data_output.root_lvl0
user.nikiforo.00298773.Data16_13TeV.DAOD_EXOT4.f698_m1594_p2950.2017.02.16_data_output.root_lvl0
user.nikiforo.00298862.Data16_13TeV.DAOD_EXOT4.f696_m1588_p2950.2017.02.16_data_output.root_lvl0
user.nikiforo.00298967.Data16_13TeV.DAOD_EXOT4.f696_m1588_p2950.2017.02.16_data_output.root_lvl0
user.nikiforo.00299055.Data16_13TeV.DAOD_EXOT4.f698_m1594_p2950.2017.02.16_data_output.root_lvl0
user.nikiforo.00299144.Data16_13TeV.DAOD_EXOT4.f698_m1594_p2950.2017.02.16_data_output.root_lvl0
user.nikiforo.00299147.Data16_13TeV.DAOD_EXOT4.f698_m1594_p2950.2017.02.16_data_output.root_lvl0
user.nikiforo.00299184.Data16_13TeV.DAOD_EXOT4.f698_m1594_p2950.2017.02.16_data_output.root_lvl0
user.nikiforo.00299243.Data16_13TeV.DAOD_EXOT4.f698_m1594_p2950.2017.02.16_data_output.root_lvl0
user.nikiforo.00299584.Data16_13TeV.DAOD_EXOT4.f703_m1600_p2950.2017.02.16_data_output.root_lvl0
user.nikiforo.00300279.Data16_13TeV.DAOD_EXOT4.f705_m1606_p2950.2017.02.16_data_output.root_lvl0
user.nikiforo.00300345.Data16_13TeV.DAOD_EXOT4.f705_m1606_p2950.2017.02.16_data_output.root_lvl0
user.nikiforo.00300415.Data16_13TeV.DAOD_EXOT4.f705_m1606_p2950.2017.02.16_data_output.root_lvl0
user.nikiforo.00300418.Data16_13TeV.DAOD_EXOT4.f705_m1606_p2950.2017.02.16_data_output.root_lvl0
user.nikiforo.00300487.Data16_13TeV.DAOD_EXOT4.f705_m1606_p2950.2017.02.16_data_output.root_lvl0
user.nikiforo.00300540.Data16_13TeV.DAOD_EXOT4.f705_m1606_p2950.2017.02.16_data_output.root_lvl0
user.nikiforo.00300571.Data16_13TeV.DAOD_EXOT4.f705_m1606_p2950.2017.02.16_data_output.root_lvl0
user.nikiforo.00300600.Data16_13TeV.DAOD_EXOT4.f708_m1606_p2950.2017.02.16_data_output.root_lvl0
user.nikiforo.00300655.Data16_13TeV.DAOD_EXOT4.f708_m1606_p2950.2017.02.16_data_output.root_lvl0
user.nikiforo.00300687.Data16_13TeV.DAOD_EXOT4.f708_m1606_p2950.2017.02.16_data_output.root_lvl0
user.nikiforo.00300784.Data16_13TeV.DAOD_EXOT4.f708_m1606_p2950.2017.02.16_data_output.root_lvl0
user.nikiforo.00300800.Data16_13TeV.DAOD_EXOT4.f708_m1606_p2950.2017.02.16_data_output.root_lvl0
user.nikiforo.00300863.Data16_13TeV.DAOD_EXOT4.f708_m1606_p2950.2017.02.16_data_output.root_lvl0
user.nikiforo.00300908.Data16_13TeV.DAOD_EXOT4.f708_m1606_p2950.2017.02.16_data_output.root_lvl0
user.nikiforo.00301912.Data16_13TeV.DAOD_EXOT4.f709_m1611_p2950.2017.02.16_data_output.root_lvl0
user.nikiforo.00301918.Data16_13TeV.DAOD_EXOT4.f709_m1611_p2950.2017.02.16_data_output.root_lvl0
user.nikiforo.00301932.Data16_13TeV.DAOD_EXOT4.f709_m1611_p2950.2017.02.16_data_output.root_lvl0
user.nikiforo.00301973.Data16_13TeV.DAOD_EXOT4.f709_m1611_p2950.2017.02.16_data_output.root_lvl0
user.nikiforo.00302053.Data16_13TeV.DAOD_EXOT4.f709_m1611_p2950.2017.02.16_data_output.root_lvl0
user.nikiforo.00302137.Data16_13TeV.DAOD_EXOT4.f709_m1620_p2950.2017.02.16_data_output.root_lvl0
user.nikiforo.00302265.Data16_13TeV.DAOD_EXOT4.f709_m1620_p2950.2017.02.16_data_output.root_lvl0
user.nikiforo.00302269.Data16_13TeV.DAOD_EXOT4.f709_m1620_p2950.2017.02.16_data_output.root_lvl0
user.nikiforo.00302300.Data16_13TeV.DAOD_EXOT4.f711_m1620_p2950.2017.02.16_data_output.root_lvl0
user.nikiforo.00302347.Data16_13TeV.DAOD_EXOT4.f711_m1620_p2950.2017.02.16_data_output.root_lvl0
user.nikiforo.00302380.Data16_13TeV.DAOD_EXOT4.f711_m1620_p2950.2017.02.16_data_output.root_lvl0
user.nikiforo.00302391.Data16_13TeV.DAOD_EXOT4.f711_m1620_p2950.2017.02.16_data_output.root_lvl0
user.nikiforo.00302393.Data16_13TeV.DAOD_EXOT4.f711_m1620_p2950.2017.02.16_data_output.root_lvl0
user.nikiforo.00302737.Data16_13TeV.DAOD_EXOT4.f711_m1620_p2950.2017.02.16_data_output.root_lvl0
user.nikiforo.00302831.Data16_13TeV.DAOD_EXOT4.f711_m1620_p2950.2017.02.16_data_output.root_lvl0
user.nikiforo.00302872.Data16_13TeV.DAOD_EXOT4.f716_m1620_p2950.2017.02.16_data_output.root_lvl0
user.nikiforo.00302919.Data16_13TeV.DAOD_EXOT4.f715_m1620_p2950.2017.02.16_data_output.root_lvl0
user.nikiforo.00302925.Data16_13TeV.DAOD_EXOT4.f715_m1620_p2950.2017.02.16_data_output.root_lvl0
user.nikiforo.00302956.Data16_13TeV.DAOD_EXOT4.f715_m1620_p2950.2017.02.16_data_output.root_lvl0
user.nikiforo.00303007.Data16_13TeV.DAOD_EXOT4.f715_m1620_p2950.2017.02.16_data_output.root_lvl0
user.nikiforo.00303079.Data16_13TeV.DAOD_EXOT4.f715_m1620_p2950.2017.02.16_data_output.root_lvl0
user.nikiforo.00303201.Data16_13TeV.DAOD_EXOT4.f715_m1620_p2950.2017.02.16_data_output.root_lvl0
user.nikiforo.00303208.Data16_13TeV.DAOD_EXOT4.f715_m1620_p2950.2017.02.16_data_output.root_lvl0
user.nikiforo.00303264.Data16_13TeV.DAOD_EXOT4.f715_m1620_p2950.2017.02.16_data_output.root_lvl0
user.nikiforo.00303266.Data16_13TeV.DAOD_EXOT4.f715_m1620_p2950.2017.02.16_data_output.root_lvl0
user.nikiforo.00303291.Data16_13TeV.DAOD_EXOT4.f716_m1620_p2950.2017.02.16_data_output.root_lvl0
user.nikiforo.00303304.Data16_13TeV.DAOD_EXOT4.f716_m1620_p2950.2017.02.16_data_output.root_lvl0
user.nikiforo.00303338.Data16_13TeV.DAOD_EXOT4.f716_m1620_p2950.2017.02.16_data_output.root_lvl0
user.nikiforo.00303421.Data16_13TeV.DAOD_EXOT4.f716_m1620_p2950.2017.02.16_data_output.root_lvl0
user.nikiforo.00303499.Data16_13TeV.DAOD_EXOT4.f716_m1620_p2950.2017.02.16_data_output.root_lvl0
user.nikiforo.00303560.Data16_13TeV.DAOD_EXOT4.f716_m1620_p2950.2017.02.16_data_output.root_lvl0
user.nikiforo.00303638.Data16_13TeV.DAOD_EXOT4.f716_m1620_p2950.2017.02.16_data_output.root_lvl0
user.nikiforo.00303832.Data16_13TeV.DAOD_EXOT4.f716_m1620_p2950.2017.02.16_data_output.root_lvl0
user.nikiforo.00303846.Data16_13TeV.DAOD_EXOT4.f716_m1620_p2950.2017.02.16_data_output.root_lvl0
user.nikiforo.00303892.Data16_13TeV.DAOD_EXOT4.f716_m1620_p2950.2017.02.16_data_output.root_lvl0
user.nikiforo.00303943.Data16_13TeV.DAOD_EXOT4.f716_m1620_p2950.2017.02.16_data_output.root_lvl0
user.nikiforo.00304006.Data16_13TeV.DAOD_EXOT4.f716_m1620_p2950.2017.02.16_data_output.root_lvl0
user.nikiforo.00304008.Data16_13TeV.DAOD_EXOT4.f716_m1620_p2950.2017.02.16_data_output.root_lvl0
user.nikiforo.00304128.Data16_13TeV.DAOD_EXOT4.f716_m1620_p2950.2017.02.16_data_output.root_lvl0
user.nikiforo.00304178.Data16_13TeV.DAOD_EXOT4.f716_m1620_p2950.2017.02.16_data_output.root_lvl0
user.nikiforo.00304198.Data16_13TeV.DAOD_EXOT4.f716_m1620_p2950.2017.02.16_data_output.root_lvl0
user.nikiforo.00304211.Data16_13TeV.DAOD_EXOT4.f716_m1620_p2950.2017.02.16_data_output.root_lvl0
user.nikiforo.00304243.Data16_13TeV.DAOD_EXOT4.f716_m1620_p2950.2017.02.16_data_output.root_lvl0
user.nikiforo.00304308.Data16_13TeV.DAOD_EXOT4.f716_m1620_p2950.2017.02.16_data_output.root_lvl0
user.nikiforo.00304337.Data16_13TeV.DAOD_EXOT4.f716_m1620_p2950.2017.02.16_data_output.root_lvl0
user.nikiforo.00304409.Data16_13TeV.DAOD_EXOT4.f716_m1620_p2950.2017.02.16_data_output.root_lvl0
user.nikiforo.00304431.Data16_13TeV.DAOD_EXOT4.f716_m1620_p2950.2017.02.16_data_output.root_lvl0
user.nikiforo.00304494.Data16_13TeV.DAOD_EXOT4.f716_m1620_p2950.2017.02.16_data_output.root_lvl0
user.nikiforo.00305380.Data16_13TeV.DAOD_EXOT4.f727_m1646_p2950.2017.02.16_data_output.root_lvl0
user.nikiforo.00305543.Data16_13TeV.DAOD_EXOT4.f729_m1646_p2950.2017.02.16_data_output.root_lvl0
user.nikiforo.00305571.Data16_13TeV.DAOD_EXOT4.f729_m1646_p2950.2017.02.16_data_output.root_lvl0
user.nikiforo.00305618.Data16_13TeV.DAOD_EXOT4.f729_m1646_p2950.2017.02.16_data_output.root_lvl0
user.nikiforo.00305671.Data16_13TeV.DAOD_EXOT4.f729_m1646_p2950.2017.02.16_data_output.root_lvl0
user.nikiforo.00305674.Data16_13TeV.DAOD_EXOT4.f729_m1646_p2950.2017.02.16_data_output.root_lvl0
user.nikiforo.00305723.Data16_13TeV.DAOD_EXOT4.f729_m1646_p2950.2017.02.16_data_output.root_lvl0
user.nikiforo.00305727.Data16_13TeV.DAOD_EXOT4.f730_m1653_p2950.2017.02.16_data_output.root_lvl0
user.nikiforo.00305735.Data16_13TeV.DAOD_EXOT4.f730_m1653_p2950.2017.02.16_data_output.root_lvl0
user.nikiforo.00305777.Data16_13TeV.DAOD_EXOT4.f730_m1653_p2950.2017.02.16_data_output.root_lvl0
user.nikiforo.00305811.Data16_13TeV.DAOD_EXOT4.f730_m1653_p2950.2017.02.16_data_output.root_lvl0
user.nikiforo.00305920.Data16_13TeV.DAOD_EXOT4.f730_m1653_p2950.2017.02.16_data_output.root_lvl0
user.nikiforo.00306269.Data16_13TeV.DAOD_EXOT4.f731_m1659_p2950.2017.02.16_data_output.root_lvl0
user.nikiforo.00306278.Data16_13TeV.DAOD_EXOT4.f732_m1659_p2950.2017.02.16_data_output.root_lvl0
user.nikiforo.00306310.Data16_13TeV.DAOD_EXOT4.f731_m1659_p2950.2017.02.16_data_output.root_lvl0
user.nikiforo.00306384.Data16_13TeV.DAOD_EXOT4.f733_m1659_p2950.2017.02.16_data_output.root_lvl0
user.nikiforo.00306419.Data16_13TeV.DAOD_EXOT4.f731_m1659_p2950.2017.02.16_data_output.root_lvl0
user.nikiforo.00306442.Data16_13TeV.DAOD_EXOT4.f731_m1659_p2950.2017.02.16_data_output.root_lvl0
user.nikiforo.00306448.Data16_13TeV.DAOD_EXOT4.f731_m1659_p2950.2017.02.16_data_output.root_lvl0
user.nikiforo.00306451.Data16_13TeV.DAOD_EXOT4.f731_m1659_p2950.2017.02.16_data_output.root_lvl0
user.nikiforo.00307126.Data16_13TeV.DAOD_EXOT4.f731_m1659_p2950.2017.02.16_data_output.root_lvl0
user.nikiforo.00307195.Data16_13TeV.DAOD_EXOT4.f731_m1659_p2950.2017.02.16_data_output.root_lvl0
user.nikiforo.00307259.Data16_13TeV.DAOD_EXOT4.f739_m1667_p2950.2017.02.16_data_output.root_lvl0
user.nikiforo.00307306.Data16_13TeV.DAOD_EXOT4.f739_m1667_p2950.2017.02.16_data_output.root_lvl0
user.nikiforo.00307354.Data16_13TeV.DAOD_EXOT4.f739_m1667_p2950.2017.02.16_data_output.root_lvl0
user.nikiforo.00307358.Data16_13TeV.DAOD_EXOT4.f739_m1667_p2950.2017.02.16_data_output.root_lvl0
user.nikiforo.00307394.Data16_13TeV.DAOD_EXOT4.f739_m1667_p2950.2017.02.16_data_output.root_lvl0
user.nikiforo.00307454.Data16_13TeV.DAOD_EXOT4.f739_m1667_p2950.2017.02.16_data_output.root_lvl0
user.nikiforo.00307514.Data16_13TeV.DAOD_EXOT4.f739_m1667_p2950.2017.02.16_data_output.root_lvl0
user.nikiforo.00307539.Data16_13TeV.DAOD_EXOT4.f739_m1667_p2950.2017.02.16_data_output.root_lvl0
user.nikiforo.00307569.Data16_13TeV.DAOD_EXOT4.f739_m1667_p2950.2017.02.16_data_output.root_lvl0
user.nikiforo.00307601.Data16_13TeV.DAOD_EXOT4.f739_m1667_p2950.2017.02.16_data_output.root_lvl0
user.nikiforo.00307619.Data16_13TeV.DAOD_EXOT4.f739_m1667_p2950.2017.02.16_data_output.root_lvl0
user.nikiforo.00307656.Data16_13TeV.DAOD_EXOT4.f739_m1673_p2950.2017.02.16_data_output.root_lvl0
user.nikiforo.00307710.Data16_13TeV.DAOD_EXOT4.f741_m1673_p2950.2017.02.16_data_output.root_lvl0
user.nikiforo.00307716.Data16_13TeV.DAOD_EXOT4.f741_m1673_p2950.2017.02.16_data_output.root_lvl0
user.nikiforo.00307732.Data16_13TeV.DAOD_EXOT4.f741_m1673_p2950.2017.02.16_data_output.root_lvl0
user.nikiforo.00307861.Data16_13TeV.DAOD_EXOT4.f741_m1673_p2950.2017.02.16_data_output.root_lvl0
user.nikiforo.00307935.Data16_13TeV.DAOD_EXOT4.f741_m1673_p2950.2017.02.16_data_output.root_lvl0
user.nikiforo.00308047.Data16_13TeV.DAOD_EXOT4.f741_m1673_p2950.2017.02.16_data_output.root_lvl0
user.nikiforo.00308084.Data16_13TeV.DAOD_EXOT4.f741_m1673_p2950.2017.02.16_data_output.root_lvl0
user.nikiforo.00309375.Data16_13TeV.DAOD_EXOT4.f749_m1684_p2950.2017.02.16_data_output.root_lvl0
user.nikiforo.00309390.Data16_13TeV.DAOD_EXOT4.f750_m1689_p2950.2017.02.16_data_output.root_lvl0
user.nikiforo.00309440.Data16_13TeV.DAOD_EXOT4.f750_m1689_p2950.2017.02.16_data_output.root_lvl0
user.nikiforo.00309516.Data16_13TeV.DAOD_EXOT4.f750_m1689_p2950.2017.02.16_data_output.root_lvl0
user.nikiforo.00309640.Data16_13TeV.DAOD_EXOT4.f750_m1689_p2950.2017.02.16_data_output.root_lvl0
user.nikiforo.00309674.Data16_13TeV.DAOD_EXOT4.f750_m1689_p2950.2017.02.16_data_output.root_lvl0
user.nikiforo.00309759.Data16_13TeV.DAOD_EXOT4.f750_m1689_p2950.2017.02.16_data_output.root_lvl0
user.nikiforo.00310015.Data16_13TeV.DAOD_EXOT4.f753_m1689_p2950.2017.02.16_data_output.root_lvl0
user.nikiforo.00310247.Data16_13TeV.DAOD_EXOT4.f755_m1699_p2950.2017.02.16_data_output.root_lvl0
user.nikiforo.00310249.Data16_13TeV.DAOD_EXOT4.f755_m1699_p2950.2017.02.16_data_output.root_lvl0
user.nikiforo.00310341.Data16_13TeV.DAOD_EXOT4.f755_m1699_p2950.2017.02.16_data_output.root_lvl0
user.nikiforo.00310370.Data16_13TeV.DAOD_EXOT4.f755_m1704_p2950.2017.02.16_data_output.root_lvl0
user.nikiforo.00310405.Data16_13TeV.DAOD_EXOT4.f756_m1704_p2950.2017.02.16_data_output.root_lvl0
user.nikiforo.00310468.Data16_13TeV.DAOD_EXOT4.f756_m1704_p2950.2017.02.16_data_output.root_lvl0
user.nikiforo.00310473.Data16_13TeV.DAOD_EXOT4.f756_m1704_p2950.2017.02.16_data_output.root_lvl0
user.nikiforo.00310634.Data16_13TeV.DAOD_EXOT4.f756_m1704_p2950.2017.02.16_data_output.root_lvl0
user.nikiforo.00310691.Data16_13TeV.DAOD_EXOT4.f756_m1704_p2950.2017.02.16_data_output.root_lvl0
user.nikiforo.00310738.Data16_13TeV.DAOD_EXOT4.f756_m1704_p2950.2017.02.16_data_output.root_lvl0
user.nikiforo.00310809.Data16_13TeV.DAOD_EXOT4.f756_m1710_p2950.2017.02.16_data_output.root_lvl0
user.nikiforo.00310863.Data16_13TeV.DAOD_EXOT4.f756_m1710_p2950.2017.02.16_data_output.root_lvl0
user.nikiforo.00310872.Data16_13TeV.DAOD_EXOT4.f756_m1710_p2950.2017.02.16_data_output.root_lvl0
user.nikiforo.00310969.Data16_13TeV.DAOD_EXOT4.f758_m1710_p2950.2017.02.16_data_output.root_lvl0
user.nikiforo.00311071.Data16_13TeV.DAOD_EXOT4.f758_m1710_p2950.2017.02.16_data_output.root_lvl0
user.nikiforo.00311170.Data16_13TeV.DAOD_EXOT4.f758_m1710_p2950.2017.02.16_data_output.root_lvl0
user.nikiforo.00311244.Data16_13TeV.DAOD_EXOT4.f758_m1710_p2950.2017.02.16_data_output.root_lvl0
user.nikiforo.00311287.Data16_13TeV.DAOD_EXOT4.f758_m1710_p2950.2017.02.16_data_output.root_lvl0
user.nikiforo.00311321.Data16_13TeV.DAOD_EXOT4.f758_m1710_p2950.2017.02.16_data_output.root_lvl0
user.nikiforo.00311365.Data16_13TeV.DAOD_EXOT4.f758_m1710_p2950.2017.02.16_data_output.root_lvl0
user.nikiforo.00311402.Data16_13TeV.DAOD_EXOT4.f758_m1710_p2950.2017.02.16_data_output.root_lvl0
user.nikiforo.00311473.Data16_13TeV.DAOD_EXOT4.f758_m1710_p2950.2017.02.16_data_output.root_lvl0
user.nikiforo.00311481.Data16_13TeV.DAOD_EXOT4.f758_m1710_p2950.2017.02.16_data_output.root_lvl0
"


VVSherpa="
user.nikiforo.361063.13TeV_Diboson_Sherpa.llll.DAOD_EXOT4.e3836_s2608_s2183_r7725_r7676_p2949.2017.02.17_bkg_output.root_lvl0
user.nikiforo.361064.13TeV_Diboson_Sherpa.lllvSFMinus.DAOD_EXOT4.e3836_s2608_s2183_r7725_r7676_p2949.2017.02.17_bkg_output.root_lvl0
user.nikiforo.361065.13TeV_Diboson_Sherpa.lllvOFMinus.DAOD_EXOT4.e3836_s2608_s2183_r7725_r7676_p2949.2017.02.17_bkg_output.root_lvl0
user.nikiforo.361066.13TeV_Diboson_Sherpa.lllvSFPlus.DAOD_EXOT4.e3836_s2608_s2183_r7725_r7676_p2949.2017.02.17_bkg_output.root_lvl0
user.nikiforo.361067.13TeV_Diboson_Sherpa.lllvOFPlus.DAOD_EXOT4.e3836_s2608_s2183_r7725_r7676_p2949.2017.02.17_bkg_output.root_lvl0
user.nikiforo.361068.13TeV_Diboson_Sherpa.llvv.DAOD_EXOT4.e3836_s2608_s2183_r7725_r7676_p2949.2017.02.17_bkg_output.root_lvl0
user.nikiforo.361069.13TeV_Diboson_Sherpa.llvvjj_ss_EW4.DAOD_EXOT4.e3836_s2726_r7772_r7676_p2949.2017.02.17_bkg_output.root_lvl0
user.nikiforo.361070.13TeV_Diboson_Sherpa.llvvjj_ss_EW6.DAOD_EXOT4.e3836_s2608_r7772_r7676_p2949.2017.02.17_bkg_output.root_lvl0
user.nikiforo.361071.13TeV_Diboson_Sherpa.lllvjj_EW6.DAOD_EXOT4.e3836_s2608_s2183_r7772_r7676_p2949.2017.02.17_bkg_output.root_lvl0
user.nikiforo.361072.13TeV_Diboson_Sherpa.lllljj_EW6.DAOD_EXOT4.e3836_s2608_s2183_r7772_r7676_p2949.2017.02.17_bkg_output.root_lvl0
"

VVSherpa_nominal="
user.nikiforo.361063.13TeV_Diboson_Sherpa.llll.DAOD_EXOT4.e3836_s2608_s2183_r7725_r7676_p2949.2017.02.17_bkg_output.root_nominal_lvl0
user.nikiforo.361064.13TeV_Diboson_Sherpa.lllvSFMinus.DAOD_EXOT4.e3836_s2608_s2183_r7725_r7676_p2949.2017.02.17_bkg_output.root_nominal_lvl0
user.nikiforo.361065.13TeV_Diboson_Sherpa.lllvOFMinus.DAOD_EXOT4.e3836_s2608_s2183_r7725_r7676_p2949.2017.02.17_bkg_output.root_nominal_lvl0
user.nikiforo.361066.13TeV_Diboson_Sherpa.lllvSFPlus.DAOD_EXOT4.e3836_s2608_s2183_r7725_r7676_p2949.2017.02.17_bkg_output.root_nominal_lvl0
user.nikiforo.361067.13TeV_Diboson_Sherpa.lllvOFPlus.DAOD_EXOT4.e3836_s2608_s2183_r7725_r7676_p2949.2017.02.17_bkg_output.root_nominal_lvl0
user.nikiforo.361068.13TeV_Diboson_Sherpa.llvv.DAOD_EXOT4.e3836_s2608_s2183_r7725_r7676_p2949.2017.02.17_bkg_output.root_nominal_lvl0
user.nikiforo.361069.13TeV_Diboson_Sherpa.llvvjj_ss_EW4.DAOD_EXOT4.e3836_s2726_r7772_r7676_p2949.2017.02.17_bkg_output.root_nominal_lvl0
user.nikiforo.361070.13TeV_Diboson_Sherpa.llvvjj_ss_EW6.DAOD_EXOT4.e3836_s2608_r7772_r7676_p2949.2017.02.17_bkg_output.root_nominal_lvl0
user.nikiforo.361071.13TeV_Diboson_Sherpa.lllvjj_EW6.DAOD_EXOT4.e3836_s2608_s2183_r7772_r7676_p2949.2017.02.17_bkg_output.root_nominal_lvl0
user.nikiforo.361072.13TeV_Diboson_Sherpa.lllljj_EW6.DAOD_EXOT4.e3836_s2608_s2183_r7772_r7676_p2949.2017.02.17_bkg_output.root_nominal_lvl0
"

Wjets="
user.nikiforo.361100.13TeV_Wjets.Wplusenu.DAOD_EXOT4.e3601_s2576_s2132_r7725_r7676_p2949.2017.02.17_bkg_output.root_lvl0
user.nikiforo.361101.13TeV_Wjets.Wplusmunu.DAOD_EXOT4.e3601_s2576_s2132_r7725_r7676_p2949.2017.02.17_bkg_output.root_lvl0
user.nikiforo.361102.13TeV_Wjets.Wplustaunu.DAOD_EXOT4.e3601_s2576_s2132_r7725_r7676_p2949.2017.02.17_bkg_output.root_lvl0
user.nikiforo.361103.13TeV_Wjets.Wminusenu.DAOD_EXOT4.e3601_s2576_s2132_r7725_r7676_p2949.2017.02.17_bkg_output.root_lvl0
user.nikiforo.361104.13TeV_Wjets.Wminusmunu.DAOD_EXOT4.e3601_s2576_s2132_r7725_r7676_p2949.2017.02.17_bkg_output.root_lvl0
user.nikiforo.361105.13TeV_Wjets.Wminustaunu.DAOD_EXOT4.e3601_s2576_s2132_r7772_r7676_p2949.2017.02.17_bkg_output.root_lvl0
"

Zjets="
user.nikiforo.363102.13TeV_Zjets_Sherpa22.Ztautau_Pt70_140_CVetoBVeto.DAOD_EXOT4.2017.02.17_bkg_output.root_lvl0
user.nikiforo.363103.13TeV_Zjets_Sherpa22.Ztautau_Pt70_140_CFilterBVeto.DAOD_EXOT4.2017.02.17_bkg_output.root_lvl0
user.nikiforo.363104.13TeV_Zjets_Sherpa22.Ztautau_Pt70_140_BFilter.DAOD_EXOT4.2017.02.17_bkg_output.root_lvl0
user.nikiforo.363105.13TeV_Zjets_Sherpa22.Ztautau_Pt140_280_CVetoBVeto.DAOD_EXOT4.2017.02.17_bkg_output.root_lvl0
user.nikiforo.363106.13TeV_Zjets_Sherpa22.Ztautau_Pt140_280_CFilterBVeto.DAOD_EXOT4.2017.02.17_bkg_output.root_lvl0
user.nikiforo.363107.13TeV_Zjets_Sherpa22.Ztautau_Pt140_280_BFilter.DAOD_EXOT4.2017.02.17_bkg_output.root_lvl0
user.nikiforo.363108.13TeV_Zjets_Sherpa22.Ztautau_Pt280_500_CVetoBVeto.DAOD_EXOT4.2017.02.17_bkg_output.root_lvl0
user.nikiforo.363109.13TeV_Zjets_Sherpa22.Ztautau_Pt280_500_CFilterBVeto.DAOD_EXOT4.2017.02.17_bkg_output.root_lvl0
user.nikiforo.363110.13TeV_Zjets_Sherpa22.Ztautau_Pt280_500_BFilter.DAOD_EXOT4.2017.02.17_bkg_output.root_lvl0
user.nikiforo.363111.13TeV_Zjets_Sherpa22.Ztautau_Pt500_700_CVetoBVeto.DAOD_EXOT4.2017.02.17_bkg_output.root_lvl0
user.nikiforo.363112.13TeV_Zjets_Sherpa22.Ztautau_Pt500_700_CFilterBVeto.DAOD_EXOT4.2017.02.17_bkg_output.root_lvl0
user.nikiforo.363113.13TeV_Zjets_Sherpa22.Ztautau_Pt500_700_BFilter.DAOD_EXOT4.2017.02.17_bkg_output.root_lvl0
user.nikiforo.363114.13TeV_Zjets_Sherpa22.Ztautau_Pt700_1000_CVetoBVeto.DAOD_EXOT4.2017.02.17_bkg_output.root_lvl0
user.nikiforo.363115.13TeV_Zjets_Sherpa22.Ztautau_Pt700_1000_CFilterBVeto.DAOD_EXOT4.2017.02.17_bkg_output.root_lvl0
user.nikiforo.363116.13TeV_Zjets_Sherpa22.Ztautau_Pt700_1000_BFilter.DAOD_EXOT4.2017.02.17_bkg_output.root_lvl0
user.nikiforo.363117.13TeV_Zjets_Sherpa22.Ztautau_Pt1000_2000_CVetoBVeto.DAOD_EXOT4.2017.02.17_bkg_output.root_lvl0
user.nikiforo.363118.13TeV_Zjets_Sherpa22.Ztautau_Pt1000_2000_CFilterBVeto.DAOD_EXOT4.2017.02.17_bkg_output.root_lvl0
user.nikiforo.363119.13TeV_Zjets_Sherpa22.Ztautau_Pt1000_2000_BFilter.DAOD_EXOT4.2017.02.17_bkg_output.root_lvl0
user.nikiforo.363120.13TeV_Zjets_Sherpa22.Ztautau_Pt2000_E_CMS_CVetoBVeto.DAOD_EXOT4.2017.02.17_bkg_output.root_lvl0
user.nikiforo.363122.13TeV_Zjets_Sherpa22.Ztautau_Pt2000_E_CMS_BFilter.DAOD_EXOT4.2017.02.17_bkg_output.root_lvl0
user.nikiforo.363364.13TeV_Zjets_Sherpa22.Zmumu_Pt0_70_CVetoBVeto.DAOD_EXOT4.2017.02.17_bkg_output.root_lvl0
user.nikiforo.363365.13TeV_Zjets_Sherpa22.Zmumu_Pt0_70_CFilterBVeto.DAOD_EXOT4.2017.02.17_bkg_output.root_lvl0
user.nikiforo.363366.13TeV_Zjets_Sherpa22.Zmumu_Pt0_70_BFilter.DAOD_EXOT4.e4716_s2726_r7725_r7676_p2949.2017.02.17_bkg_output.root_lvl0
user.nikiforo.363367.13TeV_Zjets_Sherpa22.Zmumu_Pt70_140_CVetoBVeto.DAOD_EXOT4.2017.02.17_bkg_output.root_lvl0
user.nikiforo.363368.13TeV_Zjets_Sherpa22.Zmumu_Pt70_140_CFilterBVeto.DAOD_EXOT4.2017.02.17_bkg_output.root_lvl0
user.nikiforo.363370.13TeV_Zjets_Sherpa22.Zmumu_Pt140_280_CVetoBVeto.DAOD_EXOT4.2017.02.17_bkg_output.root_lvl0
user.nikiforo.363371.13TeV_Zjets_Sherpa22.Zmumu_Pt140_280_CFilterBVeto.DAOD_EXOT4.2017.02.17_bkg_output.root_lvl0
user.nikiforo.363372.13TeV_Zjets_Sherpa22.Zmumu_Pt140_280_BFilter.DAOD_EXOT4.2017.02.17_bkg_output.root_lvl0
user.nikiforo.363373.13TeV_Zjets_Sherpa22.Zmumu_Pt280_500_CVetoBVeto.DAOD_EXOT4.2017.02.17_bkg_output.root_lvl0
user.nikiforo.363374.13TeV_Zjets_Sherpa22.Zmumu_Pt280_500_CFilterBVeto.DAOD_EXOT4.2017.02.17_bkg_output.root_lvl0
user.nikiforo.363375.13TeV_Zjets_Sherpa22.Zmumu_Pt280_500_BFilter.DAOD_EXOT4.2017.02.17_bkg_output.root_lvl0
user.nikiforo.363376.13TeV_Zjets_Sherpa22.Zmumu_Pt500_700_CVetoBVeto.DAOD_EXOT4.2017.02.17_bkg_output.root_lvl0
user.nikiforo.363377.13TeV_Zjets_Sherpa22.Zmumu_Pt500_700_CFilterBVeto.DAOD_EXOT4.2017.02.17_bkg_output.root_lvl0
user.nikiforo.363378.13TeV_Zjets_Sherpa22.Zmumu_Pt500_700_BFilter.DAOD_EXOT4.2017.02.17_bkg_output.root_lvl0
user.nikiforo.363379.13TeV_Zjets_Sherpa22.Zmumu_Pt700_1000_CVetoBVeto.DAOD_EXOT4.2017.02.17_bkg_output.root_lvl0
user.nikiforo.363380.13TeV_Zjets_Sherpa22.Zmumu_Pt700_1000_CFilterBVeto.DAOD_EXOT4.2017.02.17_bkg_output.root_lvl0
user.nikiforo.363381.13TeV_Zjets_Sherpa22.Zmumu_Pt700_1000_BFilter.DAOD_EXOT4.2017.02.17_bkg_output.root_lvl0
user.nikiforo.363382.13TeV_Zjets_Sherpa22.Zmumu_Pt1000_2000_CVetoBVeto.DAOD_EXOT4.2017.02.17_bkg_output.root_lvl0
user.nikiforo.363383.13TeV_Zjets_Sherpa22.Zmumu_Pt1000_2000_CFilterBVeto.DAOD_EXOT4.2017.02.17_bkg_output.root_lvl0
user.nikiforo.363384.13TeV_Zjets_Sherpa22.Zmumu_Pt1000_2000_BFilter.DAOD_EXOT4.2017.02.17_bkg_output.root_lvl0
user.nikiforo.363385.13TeV_Zjets_Sherpa22.Zmumu_Pt2000_E_CMS_CVetoBVeto.DAOD_EXOT4.2017.02.17_bkg_output.root_lvl0
user.nikiforo.363386.13TeV_Zjets_Sherpa22.Zmumu_Pt2000_E_CMS_CFilterBVeto.DAOD_EXOT4.2017.02.17_bkg_output.root_lvl0
user.nikiforo.363387.13TeV_Zjets_Sherpa22.Zmumu_Pt2000_E_CMS_BFilter.DAOD_EXOT4.2017.02.17_bkg_output.root_lvl0
user.nikiforo.363388.13TeV_Zjets_Sherpa22.Zee_Pt0_70_CVetoBVeto.DAOD_EXOT4.e4716_s2726_r7725_r7676_p2949.2017.02.17_bkg_output.root_lvl0
user.nikiforo.363389.13TeV_Zjets_Sherpa22.Zee_Pt0_70_CFilterBVeto.DAOD_EXOT4.2017.02.17_bkg_output.root_lvl0
user.nikiforo.363390.13TeV_Zjets_Sherpa22.Zee_Pt0_70_BFilter.DAOD_EXOT4.e4716_s2726_r7725_r7676_p2949.2017.02.17_bkg_output.root_lvl0
user.nikiforo.363391.13TeV_Zjets_Sherpa22.Zee_Pt70_140_CVetoBVeto.DAOD_EXOT4.2017.02.17_bkg_output.root_lvl0
user.nikiforo.363392.13TeV_Zjets_Sherpa22.Zee_Pt70_140_CFilterBVeto.DAOD_EXOT4.2017.02.17_bkg_output.root_lvl0
user.nikiforo.363393.13TeV_Zjets_Sherpa22.Zee_Pt70_140_BFilter.DAOD_EXOT4.e4716_s2726_r7725_r7676_p2949.2017.02.17_bkg_output.root_lvl0
user.nikiforo.363394.13TeV_Zjets_Sherpa22.Zee_Pt140_280_CVetoBVeto.DAOD_EXOT4.2017.02.17_bkg_output.root_lvl0
user.nikiforo.363395.13TeV_Zjets_Sherpa22.Zee_Pt140_280_CFilterBVeto.DAOD_EXOT4.2017.02.17_bkg_output.root_lvl0
user.nikiforo.363396.13TeV_Zjets_Sherpa22.Zee_Pt140_280_BFilter.DAOD_EXOT4.e4772_s2726_r7725_r7676_p2949.2017.02.17_bkg_output.root_lvl0
user.nikiforo.363397.13TeV_Zjets_Sherpa22.Zee_Pt280_500_CVetoBVeto.DAOD_EXOT4.2017.02.17_bkg_output.root_lvl0
user.nikiforo.363398.13TeV_Zjets_Sherpa22.Zee_Pt280_500_CFilterBVeto.DAOD_EXOT4.2017.02.17_bkg_output.root_lvl0
user.nikiforo.363399.13TeV_Zjets_Sherpa22.Zee_Pt280_500_BFilter.DAOD_EXOT4.e4772_s2726_r7725_r7676_p2949.2017.02.17_bkg_output.root_lvl0
user.nikiforo.363400.13TeV_Zjets_Sherpa22.Zee_Pt500_700_CVetoBVeto.DAOD_EXOT4.2017.02.17_bkg_output.root_lvl0
user.nikiforo.363401.13TeV_Zjets_Sherpa22.Zee_Pt500_700_CFilterBVeto.DAOD_EXOT4.2017.02.17_bkg_output.root_lvl0
user.nikiforo.363402.13TeV_Zjets_Sherpa22.Zee_Pt500_700_BFilter.DAOD_EXOT4.e4716_s2726_r7725_r7676_p2949.2017.02.17_bkg_output.root_lvl0
user.nikiforo.363403.13TeV_Zjets_Sherpa22.Zee_Pt700_1000_CVetoBVeto.DAOD_EXOT4.2017.02.17_bkg_output.root_lvl0
user.nikiforo.363404.13TeV_Zjets_Sherpa22.Zee_Pt700_1000_CFilterBVeto.DAOD_EXOT4.2017.02.17_bkg_output.root_lvl0
user.nikiforo.363406.13TeV_Zjets_Sherpa22.Zee_Pt1000_2000_CVetoBVeto.DAOD_EXOT4.2017.02.17_bkg_output.root_lvl0
user.nikiforo.363407.13TeV_Zjets_Sherpa22.Zee_Pt1000_2000_CFilterBVeto.DAOD_EXOT4.2017.02.17_bkg_output.root_lvl0
user.nikiforo.363408.13TeV_Zjets_Sherpa22.Zee_Pt1000_2000_BFilter.DAOD_EXOT4.2017.02.17_bkg_output.root_lvl0
user.nikiforo.363409.13TeV_Zjets_Sherpa22.Zee_Pt2000_E_CMS_CVetoBVeto.DAOD_EXOT4.2017.02.17_bkg_output.root_lvl0
user.nikiforo.363410.13TeV_Zjets_Sherpa22.Zee_Pt2000_E_CMS_CFilterBVeto.DAOD_EXOT4.2017.02.17_bkg_output.root_lvl0
user.nikiforo.363411.13TeV_Zjets_Sherpa22.Zee_Pt2000_E_CMS_BFilter.DAOD_EXOT4.2017.02.17_bkg_output.root_lvl0
"

Zjets_Madgraph="
user.nikiforo.363123.13TeV_Zjets_Madgraph.Zmumu_Ht0_70_CVetoBVeto.DAOD_EXOT4.2017.02.17_bkg_output.root_lvl0
user.nikiforo.363124.13TeV_Zjets_Madgraph.Zmumu_Ht0_70_CFilterBVeto.DAOD_EXOT4.2017.02.17_bkg_output.root_lvl0
user.nikiforo.363125.13TeV_Zjets_Madgraph.Zmumu_Ht0_70_BFilter.DAOD_EXOT4.e4649_s2726_r7772_r7676_p2949.2017.02.17_bkg_output.root_lvl0
user.nikiforo.363126.13TeV_Zjets_Madgraph.Zmumu_Ht70_140_CVetoBVeto.DAOD_EXOT4.2017.02.17_bkg_output.root_lvl0
user.nikiforo.363127.13TeV_Zjets_Madgraph.Zmumu_Ht70_140_CFilterBVeto.DAOD_EXOT4.2017.02.17_bkg_output.root_lvl0
user.nikiforo.363128.13TeV_Zjets_Madgraph.Zmumu_Ht70_140_BFilter.DAOD_EXOT4.2017.02.17_bkg_output.root_lvl0
user.nikiforo.363129.13TeV_Zjets_Madgraph.Zmumu_Ht140_280_CVetoBVeto.DAOD_EXOT4.2017.02.17_bkg_output.root_lvl0
user.nikiforo.363130.13TeV_Zjets_Madgraph.Zmumu_Ht140_280_CFilterBVeto.DAOD_EXOT4.2017.02.17_bkg_output.root_lvl0
user.nikiforo.363131.13TeV_Zjets_Madgraph.Zmumu_Ht140_280_BFilter.DAOD_EXOT4.2017.02.17_bkg_output.root_lvl0
user.nikiforo.363132.13TeV_Zjets_Madgraph.Zmumu_Ht280_500_CVetoBVeto.DAOD_EXOT4.2017.02.17_bkg_output.root_lvl0
user.nikiforo.363133.13TeV_Zjets_Madgraph.Zmumu_Ht280_500_CFilterBVeto.DAOD_EXOT4.2017.02.17_bkg_output.root_lvl0
user.nikiforo.363134.13TeV_Zjets_Madgraph.Zmumu_Ht280_500_BFilter.DAOD_EXOT4.2017.02.17_bkg_output.root_lvl0
user.nikiforo.363135.13TeV_Zjets_Madgraph.Zmumu_Ht500_700_CVetoBVeto.DAOD_EXOT4.2017.02.17_bkg_output.root_lvl0
user.nikiforo.363136.13TeV_Zjets_Madgraph.Zmumu_Ht500_700_CFilterBVeto.DAOD_EXOT4.2017.02.17_bkg_output.root_lvl0
user.nikiforo.363137.13TeV_Zjets_Madgraph.Zmumu_Ht500_700_BFilter.DAOD_EXOT4.2017.02.17_bkg_output.root_lvl0
user.nikiforo.363138.13TeV_Zjets_Madgraph.Zmumu_Ht700_1000_CVetoBVeto.DAOD_EXOT4.2017.02.17_bkg_output.root_lvl0
user.nikiforo.363139.13TeV_Zjets_Madgraph.Zmumu_Ht700_1000_CFilterBVeto.DAOD_EXOT4.2017.02.17_bkg_output.root_lvl0
user.nikiforo.363140.13TeV_Zjets_Madgraph.Zmumu_Ht700_1000_BFilter.DAOD_EXOT4.2017.02.17_bkg_output.root_lvl0
user.nikiforo.363141.13TeV_Zjets_Madgraph.Zmumu_Ht1000_2000_CVetoBVeto.DAOD_EXOT4.2017.02.17_bkg_output.root_lvl0
user.nikiforo.363142.13TeV_Zjets_Madgraph.Zmumu_Ht1000_2000_CFilterBVeto.DAOD_EXOT4.2017.02.17_bkg_output.root_lvl0
user.nikiforo.363143.13TeV_Zjets_Madgraph.Zmumu_Ht1000_2000_BFilter.DAOD_EXOT4.2017.02.17_bkg_output.root_lvl0
user.nikiforo.363144.13TeV_Zjets_Madgraph.Zmumu_Ht2000_E_CMS_CVetoBVeto.DAOD_EXOT4.2017.02.17_bkg_output.root_lvl0
user.nikiforo.363145.13TeV_Zjets_Madgraph.Zmumu_Ht2000_E_CMS_CFilterBVeto.DAOD_EXOT4.2017.02.17_bkg_output.root_lvl0
user.nikiforo.363146.13TeV_Zjets_Madgraph.Zmumu_Ht2000_E_CMS_BFilter.DAOD_EXOT4.2017.02.17_bkg_output.root_lvl0
user.nikiforo.363147.13TeV_Zjets_Madgraph.Zee_Ht0_70_CVetoBVeto.DAOD_EXOT4.e4866_s2726_r7772_r7676_p2949.2017.02.17_bkg_output.root_lvl0
user.nikiforo.363148.13TeV_Zjets_Madgraph.Zee_Ht0_70_CFilterBVeto.DAOD_EXOT4.2017.02.17_bkg_output.root_lvl0
user.nikiforo.363149.13TeV_Zjets_Madgraph.Zee_Ht0_70_BFilter.DAOD_EXOT4.e4866_s2726_r7772_r7676_p2949.2017.02.17_bkg_output.root_lvl0
user.nikiforo.363150.13TeV_Zjets_Madgraph.Zee_Ht70_140_CVetoBVeto.DAOD_EXOT4.2017.02.17_bkg_output.root_lvl0
user.nikiforo.363151.13TeV_Zjets_Madgraph.Zee_Ht70_140_CFilterBVeto.DAOD_EXOT4.2017.02.17_bkg_output.root_lvl0
user.nikiforo.363152.13TeV_Zjets_Madgraph.Zee_Ht70_140_BFilter.DAOD_EXOT4.e4866_s2726_r7772_r7676_p2949.2017.02.17_bkg_output.root_lvl0
user.nikiforo.363153.13TeV_Zjets_Madgraph.Zee_Ht140_280_CVetoBVeto.DAOD_EXOT4.2017.02.17_bkg_output.root_lvl0
user.nikiforo.363154.13TeV_Zjets_Madgraph.Zee_Ht140_280_CFilterBVeto.DAOD_EXOT4.2017.02.17_bkg_output.root_lvl0
user.nikiforo.363155.13TeV_Zjets_Madgraph.Zee_Ht140_280_BFilter.DAOD_EXOT4.e4866_s2726_r7772_r7676_p2949.2017.02.17_bkg_output.root_lvl0
user.nikiforo.363156.13TeV_Zjets_Madgraph.Zee_Ht280_500_CVetoBVeto.DAOD_EXOT4.2017.02.17_bkg_output.root_lvl0
user.nikiforo.363157.13TeV_Zjets_Madgraph.Zee_Ht280_500_CFilterBVeto.DAOD_EXOT4.2017.02.17_bkg_output.root_lvl0
user.nikiforo.363158.13TeV_Zjets_Madgraph.Zee_Ht280_500_BFilter.DAOD_EXOT4.e4866_s2726_r7772_r7676_p2949.2017.02.17_bkg_output.root_lvl0
user.nikiforo.363159.13TeV_Zjets_Madgraph.Zee_Ht500_700_CVetoBVeto.DAOD_EXOT4.2017.02.17_bkg_output.root_lvl0
user.nikiforo.363160.13TeV_Zjets_Madgraph.Zee_Ht500_700_CFilterBVeto.DAOD_EXOT4.2017.02.17_bkg_output.root_lvl0
user.nikiforo.363161.13TeV_Zjets_Madgraph.Zee_Ht500_700_BFilter.DAOD_EXOT4.e4866_s2726_r7772_r7676_p2949.2017.02.17_bkg_output.root_lvl0
user.nikiforo.363162.13TeV_Zjets_Madgraph.Zee_Ht700_1000_CVetoBVeto.DAOD_EXOT4.2017.02.17_bkg_output.root_lvl0
user.nikiforo.363163.13TeV_Zjets_Madgraph.Zee_Ht700_1000_CFilterBVeto.DAOD_EXOT4.2017.02.17_bkg_output.root_lvl0
user.nikiforo.363164.13TeV_Zjets_Madgraph.Zee_Ht700_1000_BFilter.DAOD_EXOT4.2017.02.17_bkg_output.root_lvl0
user.nikiforo.363165.13TeV_Zjets_Madgraph.Zee_Ht1000_2000_CVetoBVeto.DAOD_EXOT4.2017.02.17_bkg_output.root_lvl0
user.nikiforo.363166.13TeV_Zjets_Madgraph.Zee_Ht1000_2000_CFilterBVeto.DAOD_EXOT4.2017.02.17_bkg_output.root_lvl0
user.nikiforo.363167.13TeV_Zjets_Madgraph.Zee_Ht1000_2000_BFilter.DAOD_EXOT4.2017.02.17_bkg_output.root_lvl0
user.nikiforo.363168.13TeV_Zjets_Madgraph.Zee_Ht2000_E_CMS_CVetoBVeto.DAOD_EXOT4.2017.02.17_bkg_output.root_lvl0
user.nikiforo.363169.13TeV_Zjets_Madgraph.Zee_Ht2000_E_CMS_CFilterBVeto.DAOD_EXOT4.2017.02.17_bkg_output.root_lvl0
user.nikiforo.363170.13TeV_Zjets_Madgraph.Zee_Ht2000_E_CMS_BFilter.DAOD_EXOT4.2017.02.17_bkg_output.root_lvl0
"

Zjets_Sherpa221="
user.nikiforo.364100.13TeV_Zjets_Sherpa221.Zmumu_MAXHTPTV0_70_CVetoBVeto.DAOD_EXOT4.2017.03.02_bkg_output.root_lvl0
user.nikiforo.364101.13TeV_Zjets_Sherpa221.Zmumu_MAXHTPTV0_70_CFilterBVeto.DAOD_EXOT4.2017.03.02_bkg_output.root_lvl0
user.nikiforo.364102.13TeV_Zjets_Sherpa221.Zmumu_MAXHTPTV0_70_BFilter.DAOD_EXOT4.2017.03.02_bkg_output.root_lvl0
user.nikiforo.364103.13TeV_Zjets_Sherpa221.Zmumu_MAXHTPTV70_140_CVetoBVeto.DAOD_EXOT4.2017.03.02_bkg_output.root_lvl0
user.nikiforo.364104.13TeV_Zjets_Sherpa221.Zmumu_MAXHTPTV70_140_CFilterBVeto.DAOD_EXOT4.2017.03.02_bkg_output.root_lvl0
user.nikiforo.364105.13TeV_Zjets_Sherpa221.Zmumu_MAXHTPTV70_140_BFilter.DAOD_EXOT4.v2.2017.03.02_bkg_output.root_lvl0
user.nikiforo.364106.13TeV_Zjets_Sherpa221.Zmumu_MAXHTPTV140_280_CVetoBVeto.DAOD_EXOT4.2017.03.02_bkg_output.root_lvl0
user.nikiforo.364107.13TeV_Zjets_Sherpa221.Zmumu_MAXHTPTV140_280_CFilterBVeto.DAOD_EXOT4.2017.03.02_bkg_output.root_lvl0
user.nikiforo.364108.13TeV_Zjets_Sherpa221.Zmumu_MAXHTPTV140_280_BFilter.DAOD_EXOT4.2017.03.02_bkg_output.root_lvl0
user.nikiforo.364109.13TeV_Zjets_Sherpa221.Zmumu_MAXHTPTV280_500_CVetoBVeto.DAOD_EXOT4.2017.03.02_bkg_output.root_lvl0
user.nikiforo.364110.13TeV_Zjets_Sherpa221.Zmumu_MAXHTPTV280_500_CFilterBVeto.DAOD_EXOT4.2017.03.02_bkg_output.root_lvl0
user.nikiforo.364111.13TeV_Zjets_Sherpa221.Zmumu_MAXHTPTV280_500_BFilter.DAOD_EXOT4.2017.03.02_bkg_output.root_lvl0
user.nikiforo.364112.13TeV_Zjets_Sherpa221.Zmumu_MAXHTPTV500_1000.DAOD_EXOT4.2017.03.02_bkg_output.root_lvl0
user.nikiforo.364113.13TeV_Zjets_Sherpa221.Zmumu_MAXHTPTV1000_E_CMS.DAOD_EXOT4.2017.03.02_bkg_output.root_lvl0
user.nikiforo.364114.13TeV_Zjets_Sherpa221.Zee_MAXHTPTV0_70_CVetoBVeto.DAOD_EXOT4.2017.03.02_bkg_output.root_lvl0
user.nikiforo.364115.13TeV_Zjets_Sherpa221.Zee_MAXHTPTV0_70_CFilterBVeto.DAOD_EXOT4.2017.03.02_bkg_output.root_lvl0
user.nikiforo.364116.13TeV_Zjets_Sherpa221.Zee_MAXHTPTV0_70_BFilter.DAOD_EXOT4.2017.03.02_bkg_output.root_lvl0
user.nikiforo.364117.13TeV_Zjets_Sherpa221.Zee_MAXHTPTV70_140_CVetoBVeto.DAOD_EXOT4.2017.03.02_bkg_output.root_lvl0
user.nikiforo.364118.13TeV_Zjets_Sherpa221.Zee_MAXHTPTV70_140_CFilterBVeto.DAOD_EXOT4.2017.03.02_bkg_output.root_lvl0
user.nikiforo.364119.13TeV_Zjets_Sherpa221.Zee_MAXHTPTV70_140_BFilter.DAOD_EXOT4.2017.03.02_bkg_output.root_lvl0
user.nikiforo.364120.13TeV_Zjets_Sherpa221.Zee_MAXHTPTV140_280_CVetoBVeto.DAOD_EXOT4.2017.03.02_bkg_output.root_lvl0
user.nikiforo.364121.13TeV_Zjets_Sherpa221.Zee_MAXHTPTV140_280_CFilterBVeto.DAOD_EXOT4.2017.03.02_bkg_output.root_lvl0
user.nikiforo.364122.13TeV_Zjets_Sherpa221.Zee_MAXHTPTV140_280_BFilter.DAOD_EXOT4.2017.03.02_bkg_output.root_lvl0
user.nikiforo.364123.13TeV_Zjets_Sherpa221.Zee_MAXHTPTV280_500_CVetoBVeto.DAOD_EXOT4.2017.03.02_bkg_output.root_lvl0
user.nikiforo.364124.13TeV_Zjets_Sherpa221.Zee_MAXHTPTV280_500_CFilterBVeto.DAOD_EXOT4.2017.03.02_bkg_output.root_lvl0
user.nikiforo.364125.13TeV_Zjets_Sherpa221.Zee_MAXHTPTV280_500_BFilter.DAOD_EXOT4.2017.03.02_bkg_output.root_lvl0
user.nikiforo.364126.13TeV_Zjets_Sherpa221.Zee_MAXHTPTV500_1000.DAOD_EXOT4.e5299_s2726_r7772_r7676_p2949.2017.03.02_bkg_output.root_lvl0
user.nikiforo.364127.13TeV_Zjets_Sherpa221.Zee_MAXHTPTV1000_E_CMS.DAOD_EXOT4.2017.03.02_bkg_output.root_lvl0
user.nikiforo.364128.13TeV_Zjets_Sherpa221.Ztautau_MAXHTPTV0_70_CVetoBVeto.DAOD_EXOT4.2017.03.02_bkg_output.root_lvl0
user.nikiforo.364129.13TeV_Zjets_Sherpa221.Ztautau_MAXHTPTV0_70_CFilterBVeto.DAOD_EXOT4.2017.03.02_bkg_output.root_lvl0
user.nikiforo.364130.13TeV_Zjets_Sherpa221.Ztautau_MAXHTPTV0_70_BFilter.DAOD_EXOT4.2017.03.02_bkg_output.root_lvl0
user.nikiforo.364131.13TeV_Zjets_Sherpa221.Ztautau_MAXHTPTV70_140_CVetoBVeto.DAOD_EXOT4.2017.03.02_bkg_output.root_lvl0
user.nikiforo.364132.13TeV_Zjets_Sherpa221.Ztautau_MAXHTPTV70_140_CFilterBVeto.DAOD_EXOT4.2017.03.02_bkg_output.root_lvl0
user.nikiforo.364133.13TeV_Zjets_Sherpa221.Ztautau_MAXHTPTV70_140_BFilter.DAOD_EXOT4.2017.03.02_bkg_output.root_lvl0
user.nikiforo.364134.13TeV_Zjets_Sherpa221.Ztautau_MAXHTPTV140_280_CVetoBVeto.DAOD_EXOT4.2017.03.02_bkg_output.root_lvl0
user.nikiforo.364135.13TeV_Zjets_Sherpa221.Ztautau_MAXHTPTV140_280_CFilterBVeto.DAOD_EXOT4.2017.03.02_bkg_output.root_lvl0
user.nikiforo.364136.13TeV_Zjets_Sherpa221.Ztautau_MAXHTPTV140_280_BFilter.DAOD_EXOT4.2017.03.02_bkg_output.root_lvl0
user.nikiforo.364137.13TeV_Zjets_Sherpa221.Ztautau_MAXHTPTV280_500_CVetoBVeto.DAOD_EXOT4.2017.03.02_bkg_output.root_lvl0
user.nikiforo.364138.13TeV_Zjets_Sherpa221.Ztautau_MAXHTPTV280_500_CFilterBVeto.DAOD_EXOT4.2017.03.02_bkg_output.root_lvl0
user.nikiforo.364139.13TeV_Zjets_Sherpa221.Ztautau_MAXHTPTV280_500_BFilter.DAOD_EXOT4.2017.03.02_bkg_output.root_lvl0
user.nikiforo.364140.13TeV_Zjets_Sherpa221.Ztautau_MAXHTPTV500_1000.DAOD_EXOT4.2017.03.02_bkg_output.root_lvl0
user.nikiforo.364141.13TeV_Zjets_Sherpa221.Ztautau_MAXHTPTV1000_E_CMS.DAOD_EXOT4.2017.03.02_bkg_output.root_lvl0
"

Zjets_Sherpa221_nominal_ee="
user.nikiforo.364114.13TeV_Zjets_Sherpa221.Zee_MAXHTPTV0_70_CVetoBVeto.DAOD_EXOT4.2017.03.02_bkg_output.root_nominal_lvl0
user.nikiforo.364115.13TeV_Zjets_Sherpa221.Zee_MAXHTPTV0_70_CFilterBVeto.DAOD_EXOT4.2017.03.02_bkg_output.root_nominal_lvl0
user.nikiforo.364116.13TeV_Zjets_Sherpa221.Zee_MAXHTPTV0_70_BFilter.DAOD_EXOT4.2017.03.02_bkg_output.root_nominal_lvl0
user.nikiforo.364117.13TeV_Zjets_Sherpa221.Zee_MAXHTPTV70_140_CVetoBVeto.DAOD_EXOT4.2017.03.02_bkg_output.root_nominal_lvl0
user.nikiforo.364118.13TeV_Zjets_Sherpa221.Zee_MAXHTPTV70_140_CFilterBVeto.DAOD_EXOT4.2017.03.02_bkg_output.root_nominal_lvl0
user.nikiforo.364119.13TeV_Zjets_Sherpa221.Zee_MAXHTPTV70_140_BFilter.DAOD_EXOT4.2017.03.02_bkg_output.root_nominal_lvl0
user.nikiforo.364120.13TeV_Zjets_Sherpa221.Zee_MAXHTPTV140_280_CVetoBVeto.DAOD_EXOT4.2017.03.02_bkg_output.root_nominal_lvl0
user.nikiforo.364121.13TeV_Zjets_Sherpa221.Zee_MAXHTPTV140_280_CFilterBVeto.DAOD_EXOT4.2017.03.02_bkg_output.root_nominal_lvl0
user.nikiforo.364122.13TeV_Zjets_Sherpa221.Zee_MAXHTPTV140_280_BFilter.DAOD_EXOT4.2017.03.02_bkg_output.root_nominal_lvl0
user.nikiforo.364123.13TeV_Zjets_Sherpa221.Zee_MAXHTPTV280_500_CVetoBVeto.DAOD_EXOT4.2017.03.02_bkg_output.root_nominal_lvl0
user.nikiforo.364124.13TeV_Zjets_Sherpa221.Zee_MAXHTPTV280_500_CFilterBVeto.DAOD_EXOT4.2017.03.02_bkg_output.root_nominal_lvl0
user.nikiforo.364125.13TeV_Zjets_Sherpa221.Zee_MAXHTPTV280_500_BFilter.DAOD_EXOT4.2017.03.02_bkg_output.root_nominal_lvl0
user.nikiforo.364126.13TeV_Zjets_Sherpa221.Zee_MAXHTPTV500_1000.DAOD_EXOT4.e5299_s2726_r7772_r7676_p2949.2017.03.02_bkg_output.root_nominal_lvl0
user.nikiforo.364127.13TeV_Zjets_Sherpa221.Zee_MAXHTPTV1000_E_CMS.DAOD_EXOT4.2017.03.02_bkg_output.root_nominal_lvl0
"

Zjets_Sherpa221_nominal_mumu="
user.nikiforo.364100.13TeV_Zjets_Sherpa221.Zmumu_MAXHTPTV0_70_CVetoBVeto.DAOD_EXOT4.2017.03.02_bkg_output.root_nominal_lvl0
user.nikiforo.364101.13TeV_Zjets_Sherpa221.Zmumu_MAXHTPTV0_70_CFilterBVeto.DAOD_EXOT4.2017.03.02_bkg_output.root_nominal_lvl0
user.nikiforo.364102.13TeV_Zjets_Sherpa221.Zmumu_MAXHTPTV0_70_BFilter.DAOD_EXOT4.2017.03.02_bkg_output.root_nominal_lvl0
user.nikiforo.364103.13TeV_Zjets_Sherpa221.Zmumu_MAXHTPTV70_140_CVetoBVeto.DAOD_EXOT4.2017.03.02_bkg_output.root_nominal_lvl0
user.nikiforo.364104.13TeV_Zjets_Sherpa221.Zmumu_MAXHTPTV70_140_CFilterBVeto.DAOD_EXOT4.2017.03.02_bkg_output.root_nominal_lvl0
user.nikiforo.364105.13TeV_Zjets_Sherpa221.Zmumu_MAXHTPTV70_140_BFilter.DAOD_EXOT4.v2.2017.03.02_bkg_output.root_nominal_lvl0
user.nikiforo.364106.13TeV_Zjets_Sherpa221.Zmumu_MAXHTPTV140_280_CVetoBVeto.DAOD_EXOT4.2017.03.02_bkg_output.root_nominal_lvl0
user.nikiforo.364107.13TeV_Zjets_Sherpa221.Zmumu_MAXHTPTV140_280_CFilterBVeto.DAOD_EXOT4.2017.03.02_bkg_output.root_nominal_lvl0
user.nikiforo.364108.13TeV_Zjets_Sherpa221.Zmumu_MAXHTPTV140_280_BFilter.DAOD_EXOT4.2017.03.02_bkg_output.root_nominal_lvl0
user.nikiforo.364109.13TeV_Zjets_Sherpa221.Zmumu_MAXHTPTV280_500_CVetoBVeto.DAOD_EXOT4.2017.03.02_bkg_output.root_nominal_lvl0
user.nikiforo.364110.13TeV_Zjets_Sherpa221.Zmumu_MAXHTPTV280_500_CFilterBVeto.DAOD_EXOT4.2017.03.02_bkg_output.root_nominal_lvl0
user.nikiforo.364111.13TeV_Zjets_Sherpa221.Zmumu_MAXHTPTV280_500_BFilter.DAOD_EXOT4.2017.03.02_bkg_output.root_nominal_lvl0
user.nikiforo.364112.13TeV_Zjets_Sherpa221.Zmumu_MAXHTPTV500_1000.DAOD_EXOT4.2017.03.02_bkg_output.root_nominal_lvl0
user.nikiforo.364113.13TeV_Zjets_Sherpa221.Zmumu_MAXHTPTV1000_E_CMS.DAOD_EXOT4.2017.03.02_bkg_output.root_nominal_lvl0
"

Zjets_Sherpa221_nominal_tautau="
user.nikiforo.364128.13TeV_Zjets_Sherpa221.Ztautau_MAXHTPTV0_70_CVetoBVeto.DAOD_EXOT4.2017.03.02_bkg_output.root_nominal_lvl0
user.nikiforo.364129.13TeV_Zjets_Sherpa221.Ztautau_MAXHTPTV0_70_CFilterBVeto.DAOD_EXOT4.2017.03.02_bkg_output.root_nominal_lvl0
user.nikiforo.364130.13TeV_Zjets_Sherpa221.Ztautau_MAXHTPTV0_70_BFilter.DAOD_EXOT4.2017.03.02_bkg_output.root_nominal_lvl0
user.nikiforo.364131.13TeV_Zjets_Sherpa221.Ztautau_MAXHTPTV70_140_CVetoBVeto.DAOD_EXOT4.2017.03.02_bkg_output.root_nominal_lvl0
user.nikiforo.364132.13TeV_Zjets_Sherpa221.Ztautau_MAXHTPTV70_140_CFilterBVeto.DAOD_EXOT4.2017.03.02_bkg_output.root_nominal_lvl0
user.nikiforo.364133.13TeV_Zjets_Sherpa221.Ztautau_MAXHTPTV70_140_BFilter.DAOD_EXOT4.2017.03.02_bkg_output.root_nominal_lvl0
user.nikiforo.364134.13TeV_Zjets_Sherpa221.Ztautau_MAXHTPTV140_280_CVetoBVeto.DAOD_EXOT4.2017.03.02_bkg_output.root_nominal_lvl0
user.nikiforo.364135.13TeV_Zjets_Sherpa221.Ztautau_MAXHTPTV140_280_CFilterBVeto.DAOD_EXOT4.2017.03.02_bkg_output.root_nominal_lvl0
user.nikiforo.364136.13TeV_Zjets_Sherpa221.Ztautau_MAXHTPTV140_280_BFilter.DAOD_EXOT4.2017.03.02_bkg_output.root_nominal_lvl0
user.nikiforo.364137.13TeV_Zjets_Sherpa221.Ztautau_MAXHTPTV280_500_CVetoBVeto.DAOD_EXOT4.2017.03.02_bkg_output.root_nominal_lvl0
user.nikiforo.364138.13TeV_Zjets_Sherpa221.Ztautau_MAXHTPTV280_500_CFilterBVeto.DAOD_EXOT4.2017.03.02_bkg_output.root_nominal_lvl0
user.nikiforo.364139.13TeV_Zjets_Sherpa221.Ztautau_MAXHTPTV280_500_BFilter.DAOD_EXOT4.2017.03.02_bkg_output.root_nominal_lvl0
user.nikiforo.364140.13TeV_Zjets_Sherpa221.Ztautau_MAXHTPTV500_1000.DAOD_EXOT4.2017.03.02_bkg_output.root_nominal_lvl0
user.nikiforo.364141.13TeV_Zjets_Sherpa221.Ztautau_MAXHTPTV1000_E_CMS.DAOD_EXOT4.2017.03.02_bkg_output.root_nominal_lvl0
"

signal="
user.istin.11370185._000001.output-lvl0.root
user.istin.11370185._000001.output-lvl0_ee.root
user.istin.11370185._000001.output-lvl0_mm.root
user.istin.11370185._000001.output.root
"

signal1000wSys="
user.istin.11893944._000001.output-lvl0_ee.root
user.istin.11893944._000001.output-lvl0_mm.root
user.istin.11893944._000002.output-lvl0_ee.root
user.istin.11893944._000002.output-lvl0_mm.root
"

signal1400="
user.istin.11858806._000001.output-lvl0_ee.root
user.istin.11858806._000001.output-lvl0_mm.root
"

signal600="
user.istin.11926873._000001.output-lvl0_ee.root
user.istin.11926873._000001.output-lvl0_mm.root
"

singletop="
user.nikiforo.410011.13TeV_singletop.singletop_tchan_lept_top.DAOD_EXOT4.2017.02.17_bkg_output.root_lvl0
user.nikiforo.410012.13TeV_singletop.singletop_tchan_lept_antitop.DAOD_EXOT4.2017.02.17_bkg_output.root_lvl0
user.nikiforo.410025.13TeV_singletop.SingleTopSchan_noAllHad_top.DAOD_EXOT4.2017.02.17_bkg_output.root_lvl0
user.nikiforo.410026.13TeV_singletop.SingleTopSchan_noAllHad_antitop.DAOD_EXOT4.2017.02.17_bkg_output.root_lvl0
user.nikiforo.410050.13TeV_singletop.MadGraphPythiaEvtGen_P2012_tZ_4fl_tchan_noAllHad.DAOD_EXOT4.2017.02.17_bkg_output.root_lvl0
user.nikiforo.410064.13TeV_singletop.Wt_DS_dilepton_top.DAOD_EXOT4.e4132_s2608_s2183_r7725_r7676_p2949.2017.02.17_bkg_output.root_lvl0
user.nikiforo.410065.13TeV_singletop.Wt_DS_dilepton_antitop.DAOD_EXOT4.2017.02.17_bkg_output.root_lvl0
"

singletop_nominal="
user.nikiforo.410011.13TeV_singletop.singletop_tchan_lept_top.DAOD_EXOT4.2017.02.17_bkg_output.root_nominal_lvl0
user.nikiforo.410012.13TeV_singletop.singletop_tchan_lept_antitop.DAOD_EXOT4.2017.02.17_bkg_output.root_nominal_lvl0
user.nikiforo.410025.13TeV_singletop.SingleTopSchan_noAllHad_top.DAOD_EXOT4.2017.02.17_bkg_output.root_nominal_lvl0
user.nikiforo.410026.13TeV_singletop.SingleTopSchan_noAllHad_antitop.DAOD_EXOT4.2017.02.17_bkg_output.root_nominal_lvl0
user.nikiforo.410050.13TeV_singletop.MadGraphPythiaEvtGen_P2012_tZ_4fl_tchan_noAllHad.DAOD_EXOT4.2017.02.17_bkg_output.root_nominal_lvl0
user.nikiforo.410064.13TeV_singletop.Wt_DS_dilepton_top.DAOD_EXOT4.e4132_s2608_s2183_r7725_r7676_p2949.2017.02.17_bkg_output.root_nominal_lvl0
user.nikiforo.410065.13TeV_singletop.Wt_DS_dilepton_antitop.DAOD_EXOT4.2017.02.17_bkg_output.root_nominal_lvl0
"

ttbar="
user.nikiforo.410501.13TeV_ttbar.PowhegPythia8EvtGen_A14_ttbar_hdamp258p75_nonallhad.DAOD_EXOT4.2017.02.17_bkg_output.root_lvl0
"

ttbarV="
user.nikiforo.410080.13TeV_ttbarV.4topSM.DAOD_EXOT4.e4111_s2608_s2183_r7725_r7676_p2949.2017.02.17_bkg_output.root_lvl0
user.nikiforo.410081.13TeV_ttbarV.ttbarWW.DAOD_EXOT4.e4111_s2608_s2183_r7725_r7676_p2949.2017.02.17_bkg_output.root_lvl0
user.nikiforo.410155.13TeV_ttbarV.ttW.DAOD_EXOT4.e5070_s2726_r7772_r7676_p2949.2017.02.17_bkg_output.root_lvl0
user.nikiforo.410156.13TeV_ttbarV.ttZnunu.DAOD_EXOT4.e5070_s2726_r7772_r7676_p2949.2017.02.17_bkg_output.root_lvl0
user.nikiforo.410157.13TeV_ttbarV.ttZqq.DAOD_EXOT4.e5070_s2726_r7772_r7676_p2949.2017.02.17_bkg_output.root_lvl0
user.nikiforo.410218.13TeV_ttbarV.ttee.DAOD_EXOT4.e5070_s2726_r7772_r7676_p2949.2017.02.17_bkg_output.root_lvl0
user.nikiforo.410219.13TeV_ttbarV.ttmumu.DAOD_EXOT4.e5070_s2726_r7772_r7676_p2949.2017.02.17_bkg_output.root_lvl0
user.nikiforo.410220.13TeV_ttbarV.tttautau.DAOD_EXOT4.e5070_s2726_r7772_r7676_p2949.2017.02.17_bkg_output.root_lvl0
"

ttbarV_nominal="
user.nikiforo.410080.13TeV_ttbarV.4topSM.DAOD_EXOT4.e4111_s2608_s2183_r7725_r7676_p2949.2017.02.17_bkg_output.root_nominal_lvl0
user.nikiforo.410081.13TeV_ttbarV.ttbarWW.DAOD_EXOT4.e4111_s2608_s2183_r7725_r7676_p2949.2017.02.17_bkg_output.root_nominal_lvl0
user.nikiforo.410155.13TeV_ttbarV.ttW.DAOD_EXOT4.e5070_s2726_r7772_r7676_p2949.2017.02.17_bkg_output.root_nominal_lvl0
user.nikiforo.410156.13TeV_ttbarV.ttZnunu.DAOD_EXOT4.e5070_s2726_r7772_r7676_p2949.2017.02.17_bkg_output.root_nominal_lvl0
user.nikiforo.410157.13TeV_ttbarV.ttZqq.DAOD_EXOT4.e5070_s2726_r7772_r7676_p2949.2017.02.17_bkg_output.root_nominal_lvl0
user.nikiforo.410218.13TeV_ttbarV.ttee.DAOD_EXOT4.e5070_s2726_r7772_r7676_p2949.2017.02.17_bkg_output.root_nominal_lvl0
user.nikiforo.410219.13TeV_ttbarV.ttmumu.DAOD_EXOT4.e5070_s2726_r7772_r7676_p2949.2017.02.17_bkg_output.root_nominal_lvl0
user.nikiforo.410220.13TeV_ttbarV.tttautau.DAOD_EXOT4.e5070_s2726_r7772_r7676_p2949.2017.02.17_bkg_output.root_nominal_lvl0
"

ttbar_nominal="
user.nikiforo.410501.13TeV_ttbar.PowhegPythia8EvtGen_A14_ttbar_hdamp258p75_nonallhad.DAOD_EXOT4.2017.02.17_bkg_output.root_nominal_lvl0
"


